…
This will be used for later evaluations.

## Calculating number of points per area

``` r
occ # shapefile with population designation
```

    ## Simple feature collection with 589 features and 4 fields
    ## Geometry type: POINT
    ## Dimension:     XY
    ## Bounding box:  xmin: 38.57426 ymin: -5.177928 xmax: 38.68242 ymax: -4.897577
    ## Geodetic CRS:  WGS 84
    ## # A tibble: 589 × 5
    ##    ScientificName     Longitude Latitude Population                 geom
    ##    <chr>                  <dbl>    <dbl>      <int>          <POINT [°]>
    ##  1 Artisornis_moreaui      38.6    -5.09          3 (38.59999 -5.093741)
    ##  2 Artisornis_moreaui      38.6    -5.10          3  (38.6277 -5.099239)
    ##  3 Artisornis_moreaui      38.6    -5.10          3 (38.62279 -5.097138)
    ##  4 Artisornis_moreaui      38.6    -5.10          3 (38.60003 -5.095966)
    ##  5 Artisornis_moreaui      38.6    -5.10          3 (38.59536 -5.102947)
    ##  6 Artisornis_moreaui      38.6    -5.10          3 (38.60023 -5.096093)
    ##  7 Artisornis_moreaui      38.6    -5.10          3 (38.60095 -5.096093)
    ##  8 Artisornis_moreaui      38.6    -5.10          3  (38.5959 -5.098026)
    ##  9 Artisornis_moreaui      38.6    -5.14          5 (38.62527 -5.135369)
    ## 10 Artisornis_moreaui      38.6    -5.14          5  (38.62532 -5.13593)
    ## # ℹ 579 more rows
…
